<?xml version="1.0" encoding="utf-8"?>
<!-- Generator: Adobe Illustrator 24.0.2, SVG Export Plug-In . SVG Version: 6.00 Build 0)  -->
<svg version="1.1" id="Слой_1" xmlns="http://www.w3.org/2000/svg" xmlns:xlink="http://www.w3.org/1999/xlink" x="0px" y="0px"
	 viewBox="0 0 57 74" style="enable-background:new 0 0 57 74;" xml:space="preserve">
<style type="text/css">
	.st0{fill:#FEFEFE;}
	.st1{fill:#47B247;}
	.st2{fill-rule:evenodd;clip-rule:evenodd;fill:#2E3134;}
	.st3{fill:#96C22B;}
</style>
<path class="st0" d="M28.49,74.22C12.78,74.22,0,61.77,0,46.47c0-15.3,12.78-27.75,28.49-27.75c15.71,0,28.49,12.45,28.49,27.75
	C56.98,61.77,44.2,74.22,28.49,74.22z"/>
<g>
	<path class="st1" d="M28.49,74.22C12.78,74.22,0,61.77,0,46.47c0-15.3,12.78-27.75,28.49-27.75c15.71,0,28.49,12.45,28.49,27.75
		C56.98,61.77,44.2,74.22,28.49,74.22z M28.49,26.04c-11.57,0-20.97,9.16-20.97,20.42c0,11.26,9.41,20.43,20.97,20.43
		c11.57,0,20.97-9.16,20.97-20.43C49.46,35.21,40.06,26.04,28.49,26.04z"/>
</g>
<path class="st2" d="M43.95,43.54c-0.25-0.85-1.01-1.48-1.94-1.48c-0.21,0-0.39,0.06-0.58,0.12c-0.02-0.01-2.41,0.69-3.69,0.69
	c-5.11,0-9.25-4.08-9.25-9.11c0-0.1,0.01-0.3,0-0.31c0,0,0,0,0-0.01c0-1.12-0.92-2.03-2.06-2.03c-0.14,0-0.26,0.05-0.39,0.08
	c-0.03-0.01,0.02,0,0,0c-6.78,1.46-11.95,7.36-11.95,14.48c0,8.21,6.75,14.86,15.08,14.86s15.08-6.65,15.08-14.86
	C44.25,45.19,44.07,44.3,43.95,43.54C43.94,43.52,43.98,43.58,43.95,43.54L43.95,43.54z"/>
<path class="st3" d="M43.29,18.05c-1.53,0-2.96-0.99-3.46-2.54c-1.57-4.88-6.03-8.15-11.1-8.15c-4.86,0-9.26,3.09-10.95,7.7
	c-0.7,1.9-2.79,2.88-4.68,2.17c-1.88-0.71-2.84-2.83-2.14-4.73C13.7,5.02,20.84,0,28.72,0c8.23,0,15.48,5.32,18.02,13.23
	c0.62,1.93-0.42,4.01-2.33,4.64C44.04,18,43.66,18.05,43.29,18.05L43.29,18.05z"/>
</svg>
