<svg width="192" height="56" viewBox="0 0 192 56" fill="none" xmlns="http://www.w3.org/2000/svg">
<path d="M5.19788 27.6434V22.761H21.0395V27.6434H25.2725V18.5211H22.4184V0.276367H7.15403C7.15403 6.53995 6.4806 13.3496 3.59448 18.5211H0.964905V27.6434H5.19788ZM11.6435 4.61269H17.6082V18.5211H8.6933C10.6174 14.8272 11.3229 9.59144 11.6435 4.61269Z" fill="#2E3134"/>
<path d="M41.8707 18.778V13.8635C41.8707 8.78841 38.9204 6.89328 34.3026 6.89328C31.9296 6.89328 29.5886 7.50358 28.338 7.92115V11.7757C29.781 11.1975 31.673 10.6193 33.7895 10.6193C36.1946 10.6193 37.4132 11.6793 37.4132 13.2211V13.7672C36.3229 13.5102 34.976 13.3496 33.7575 13.3496C30.6789 13.3496 26.9911 14.5702 26.9911 18.4889C26.9911 21.5404 29.4924 23.2107 32.3785 23.2107C34.6554 23.2107 36.4191 22.5041 37.9263 21.3156C38.5677 22.4719 39.7542 23.0501 41.3255 23.0501C42.1913 23.0501 43.0892 22.8574 43.7947 22.6004V19.6774C43.5061 19.7738 43.2175 19.8059 42.961 19.8059C42.3837 19.8059 41.8707 19.581 41.8707 18.778ZM34.7836 16.0156C35.7136 16.0156 36.7398 16.2083 37.4132 16.369V18.778C36.387 19.6774 35.2005 20.0307 33.9499 20.0307C32.603 20.0307 31.5448 19.292 31.5448 18.1356C31.5448 16.5617 33.1482 16.0156 34.7836 16.0156Z" fill="#2E3134"/>
<path d="M53.5722 22.761V11.1011H58.4786V7.34297H44.2404V11.1011H49.1468V22.761H53.5722Z" fill="#2E3134"/>
<path d="M74.4032 22.761V7.34297H69.9778V14.3453C69.144 14.6987 68.2782 14.8271 67.252 14.8271C65.6165 14.8271 64.4941 14.249 64.4941 12.4181V7.34297H60.0367V12.8357C60.0367 16.8186 62.7304 18.5853 66.0334 18.5853C67.5727 18.5853 68.7592 18.3926 69.9778 17.9429V22.761H74.4032Z" fill="#2E3134"/>
<path d="M82.0687 22.761L88.9312 14.0884V22.761H93.3566V7.34297H89.5084L82.6459 16.0156V7.34297H78.1884V22.761H82.0687Z" fill="#2E3134"/>
<path d="M101.592 22.761V16.658H103.388L107.814 22.761H112.816L107.076 14.9556L112.367 7.34297H107.365L103.452 13.0926H101.592V7.34297H97.1349V22.761H101.592Z" fill="#2E3134"/>
<path d="M0.964905 47.3978C0.964905 52.8905 5.16581 55.3316 9.36672 55.3316C11.3229 55.3316 13.0545 54.9462 14.5617 54.3038V50.3529C13.4394 51.0274 11.868 51.4771 10.2326 51.4771C7.82746 51.4771 5.51856 50.1281 5.51856 47.1729C5.51856 44.0572 7.85953 42.8687 10.2967 42.8687C11.7718 42.8687 13.3111 43.3184 14.4014 44.0251V40.1063C13.0225 39.3675 11.3549 38.9821 9.65534 38.9821C5.39029 38.9821 0.964905 41.4875 0.964905 47.3978Z" fill="#2E3134"/>
<path d="M22.103 54.882V43.222H28.3242V54.882H32.7816V39.4639H17.6455V54.882H22.103Z" fill="#2E3134"/>
<path d="M35.6948 47.1729C35.6948 52.5692 39.7354 55.3316 44.1928 55.3316C48.6824 55.3316 52.6909 52.5692 52.6909 47.1729C52.6909 41.7766 48.6824 39.0142 44.1928 39.0142C39.7354 39.0142 35.6948 41.7766 35.6948 47.1729ZM48.1693 47.1729C48.1693 49.5499 46.7583 51.3486 44.1928 51.3486C41.6595 51.3486 40.2485 49.5499 40.2485 47.1729C40.2485 44.796 41.6595 42.9972 44.1928 42.9972C46.7583 42.9972 48.1693 44.796 48.1693 47.1729Z" fill="#2E3134"/>
<path d="M60.0585 54.882V48.779H61.8543L66.2797 54.882H71.2823L65.5421 47.0766L70.8333 39.4639H65.8307L61.9184 45.2136H60.0585V39.4639H55.601V54.882H60.0585Z" fill="#2E3134"/>
<path d="M71.4895 47.1729C71.4895 52.5692 75.5301 55.3316 79.9875 55.3316C84.477 55.3316 88.4855 52.5692 88.4855 47.1729C88.4855 41.7766 84.477 39.0142 79.9875 39.0142C75.5301 39.0142 71.4895 41.7766 71.4895 47.1729ZM83.9639 47.1729C83.9639 49.5499 82.5529 51.3486 79.9875 51.3486C77.4541 51.3486 76.0431 49.5499 76.0431 47.1729C76.0431 44.796 77.4541 42.9972 79.9875 42.9972C82.5529 42.9972 83.9639 44.796 83.9639 47.1729Z" fill="#2E3134"/>
<path d="M103.902 36.3161V32.9755C102.203 33.907 100.631 34.1961 98.9958 34.1961C97.3603 34.1961 95.789 33.907 94.0894 32.9755V36.3161C95.5004 37.1833 97.0076 37.6009 98.9958 37.6009C100.984 37.6009 102.491 37.1833 103.902 36.3161ZM95.2759 54.882L102.138 46.2093V54.882H106.564V39.4639H102.716L95.8531 48.1366V39.4639H91.3957V54.882H95.2759Z" fill="#2E3134"/>
<path d="M109.476 47.3978C109.476 52.8905 113.677 55.3316 117.878 55.3316C119.834 55.3316 121.566 54.9462 123.073 54.3038V50.3529C121.951 51.0274 120.379 51.4771 118.744 51.4771C116.339 51.4771 114.03 50.1281 114.03 47.1729C114.03 44.0572 116.371 42.8687 118.808 42.8687C120.283 42.8687 121.822 43.3184 122.913 44.0251V40.1063C121.534 39.3675 119.866 38.9821 118.167 38.9821C113.902 38.9821 109.476 41.4875 109.476 47.3978Z" fill="#2E3134"/>
<path d="M134.11 54.882V43.222H139.016V39.4639H124.778V43.222H129.684V54.882H134.11Z" fill="#2E3134"/>
<path d="M150.836 54.882C154.716 54.882 155.999 52.8904 155.999 50.7062C155.999 48.8432 154.941 47.6226 153.273 47.0766C154.78 46.4984 155.646 45.3099 155.646 43.5433C155.646 41.4554 154.235 39.4639 150.579 39.4639H141.408V54.882H150.836ZM145.865 48.4899H149.521C150.612 48.4899 151.574 48.8753 151.574 50.1923C151.574 51.4129 150.644 51.8305 149.521 51.8305H145.865V48.4899ZM145.833 42.5154H149.201C150.227 42.5154 151.157 42.9008 151.157 44.1857C151.157 45.3741 150.291 45.7917 149.233 45.7917H145.833V42.5154Z" fill="#2E3134"/>
<path d="M162.888 54.882L169.751 46.2093V54.882H174.176V39.4639H170.328L163.465 48.1366V39.4639H159.008V54.882H162.888Z" fill="#2E3134"/>
<path d="M181.61 54.882L185.041 50.2887H187.543V54.882H192V39.4639H183.662C179.622 39.4639 177.505 41.9693 177.505 44.8602C177.505 46.9481 178.564 48.8111 180.648 49.7105L176.607 54.882H181.61ZM182.027 44.9887C182.027 43.7039 182.957 42.9972 184.56 42.9972H187.543V46.9481H184.56C182.957 46.9481 182.027 46.2414 182.027 44.9887Z" fill="#2E3134"/>
</svg>
